<?xml version="1.0" encoding="UTF-8"?>
<svg width="15px" height="15px" viewBox="0 0 15 15" version="1.1" xmlns="http://www.w3.org/2000/svg" xmlns:xlink="http://www.w3.org/1999/xlink">
    <title>call</title>
    <g id="Web-UI" stroke="none" stroke-width="1" fill="none" fill-rule="evenodd">
        <g id="HOME" transform="translate(-851.000000, -13.000000)" fill="#FFFFFF" fill-rule="nonzero">
            <g id="call" transform="translate(851.000000, 13.000000)">
                <path d="M13.7964063,9.84578125 C12.8780469,9.84578125 11.9763281,9.70214844 11.1218359,9.41976562 C10.703125,9.27695312 10.1883984,9.40796875 9.93285156,9.67042969 L8.24625,10.9436328 C6.29027344,9.89953125 5.08542969,8.69507812 4.05558594,6.75378906 L5.29132813,5.11113281 C5.61238281,4.79050781 5.72753906,4.32214844 5.58957031,3.88269531 C5.30597656,3.02371094 5.16191406,2.12242187 5.16191406,1.20367187 C5.16195313,0.539960938 4.62199219,0 3.95832031,0 L1.20363281,0 C0.539960938,0 1.95399252e-14,0.539960938 1.95399252e-14,1.20363281 C1.95399252e-14,8.81105469 6.18898438,15 13.7964063,15 C14.4600781,15 15.0000391,14.4600391 15.0000391,13.7963672 L15.0000391,11.049375 C15.0000391,10.3857422 14.4600391,9.84578125 13.7964063,9.84578125 Z" id="Path"></path>
            </g>
        </g>
    </g>
</svg>